\select@language {ngerman}
\addvspace {10\p@ }
\addvspace {10\p@ }
\addvspace {10\p@ }
\addvspace {10\p@ }
\contentsline {figure}{\numberline {4.1}{\ignorespaces Comparison between $TV$ and $TV_{pwL}^0$}}{61}{figure.caption.31}
\contentsline {figure}{\numberline {4.2}{\ignorespaces Comparison of solutions with different regularization parameters}}{62}{figure.caption.32}
\contentsline {subfigure}{\numberline {a}{\ignorespaces Step function: Comparison between numerical solution of the corresponding model for $TV^{\gamma }_{pwL}$ with $\gamma = 1$ and parameter $\alpha =1$ and with $\gamma =1$ with parameter $\alpha =0.01$.\relax }}{62}{figure.caption.32}
\contentsline {subfigure}{\numberline {b}{\ignorespaces Step function: Comparison between numerical solution of the corresponding model for $TV^{\gamma }_{pwL}$ with $\gamma = 10$ and parameter $\alpha =1$ and with $\gamma =10$ with parameter $\alpha =0.01$.\relax }}{62}{figure.caption.32}
\contentsline {figure}{\numberline {4.3}{\ignorespaces Hat function reconstructed with different parameters $\gamma $}}{63}{figure.caption.33}
\contentsline {figure}{\numberline {4.4}{\ignorespaces Cosine reconstructed with different parameters $\gamma $}}{64}{figure.caption.34}
\contentsline {figure}{\numberline {4.5}{\ignorespaces Comparison of $TV_{pwL}^{2}$, $TVL^{\infty }_{\alpha ,\beta }$, $TVL^2_{\alpha ,\beta }$ and $TGV^2_{\alpha }$}}{65}{figure.caption.35}
\contentsline {figure}{\numberline {4.6}{\ignorespaces Comparison of $TV_{pwL}^{2}$, $TVL^{\infty }_{\alpha ,\beta }$, $TVL^2_{\alpha ,\beta }$ and $TGV^2_{\alpha }$}}{66}{figure.caption.36}
\contentsline {figure}{\numberline {4.7}{\ignorespaces Reconstruction of step function with Gaussian noise}}{66}{figure.caption.37}
\contentsline {figure}{\numberline {4.8}{\ignorespaces Reconstruction of hat function with Gaussian noise}}{67}{figure.caption.38}
\contentsline {figure}{\numberline {4.9}{\ignorespaces Reconstruction of piecewise linear function with Gaussian noise}}{68}{figure.caption.39}
\contentsline {figure}{\numberline {4.10}{\ignorespaces Comparison of reconstructions for different noise levels}}{68}{figure.caption.40}
\contentsline {figure}{\numberline {4.11}{\ignorespaces Comparison of reconstructions for different regularizers}}{70}{figure.caption.41}
\contentsline {figure}{\numberline {4.12}{\ignorespaces Reconstruction of cosine function with Gaussian noise}}{71}{figure.caption.42}
\contentsline {figure}{\numberline {4.13}{\ignorespaces Synthetic test images}}{72}{figure.caption.43}
\contentsline {subfigure}{\numberline {a}{\ignorespaces Piecewise constant test image\relax }}{72}{figure.caption.43}
\contentsline {subfigure}{\numberline {b}{\ignorespaces Piecewise affine test image\relax }}{72}{figure.caption.43}
\contentsline {figure}{\numberline {4.14}{\ignorespaces Reconstruction of piecewise constant image}}{73}{figure.caption.44}
\contentsline {subfigure}{\numberline {a}{\ignorespaces Noisy image\relax }}{73}{figure.caption.44}
\contentsline {subfigure}{\numberline {b}{\ignorespaces Reconstruction with $TV$\relax }}{73}{figure.caption.44}
\contentsline {subfigure}{\numberline {c}{\ignorespaces Reconstruction with $TV_{pwL}^{\gamma }$, $\gamma =0$\relax }}{73}{figure.caption.44}
\contentsline {subfigure}{\numberline {d}{\ignorespaces Reconstruction with $TVL^2_{\alpha ,\beta }$, $\beta =190.9358$\relax }}{73}{figure.caption.44}
\contentsline {subfigure}{\numberline {e}{\ignorespaces Reconstruction with $TVL^{\infty }_{\alpha ,\beta }$, $\beta =44391$\relax }}{73}{figure.caption.44}
\contentsline {subfigure}{\numberline {f}{\ignorespaces Reconstruction with $TGV^2_{\alpha ,\beta }$, $\beta =76.2258$\relax }}{73}{figure.caption.44}
\contentsline {figure}{\numberline {4.15}{\ignorespaces Reconstruction of piecewise affine image}}{74}{figure.caption.46}
\contentsline {subfigure}{\numberline {a}{\ignorespaces Noisy image\relax }}{74}{figure.caption.46}
\contentsline {subfigure}{\numberline {b}{\ignorespaces Reconstruction with $TV$\relax }}{74}{figure.caption.46}
\contentsline {subfigure}{\numberline {c}{\ignorespaces Reconstruction with $TV_{pwL}^{\gamma }$, $\gamma =1$\relax }}{74}{figure.caption.46}
\contentsline {subfigure}{\numberline {d}{\ignorespaces Reconstruction with $TVL^2_{\alpha ,\beta }$, $\beta =167.9745$\relax }}{74}{figure.caption.46}
\contentsline {subfigure}{\numberline {e}{\ignorespaces Reconstruction with $TVL^{\infty }_{\alpha ,\beta }$, $\beta =43281$\relax }}{74}{figure.caption.46}
\contentsline {subfigure}{\numberline {f}{\ignorespaces Reconstruction with $TGV^2_{\alpha ,\beta }$, $\beta =382.0272$\relax }}{74}{figure.caption.46}
\contentsline {figure}{\numberline {4.16}{\ignorespaces Reconstruction of piecewise affine image for different values of $\gamma $}}{75}{figure.caption.47}
\contentsline {subfigure}{\numberline {a}{\ignorespaces Noisy image\relax }}{75}{figure.caption.47}
\contentsline {subfigure}{\numberline {b}{\ignorespaces Reconstruction with $TV_{pwL}^{\gamma }$, $\gamma =0.1$\relax }}{75}{figure.caption.47}
\contentsline {subfigure}{\numberline {c}{\ignorespaces Reconstruction with $TV_{pwL}^{\gamma }$, $\gamma =1$\relax }}{75}{figure.caption.47}
\contentsline {subfigure}{\numberline {d}{\ignorespaces Reconstruction with $TV_{pwL}^{\gamma }$, $\gamma =5$\relax }}{75}{figure.caption.47}
\contentsline {figure}{\numberline {4.17}{\ignorespaces Natural test images}}{76}{figure.caption.48}
\contentsline {subfigure}{\numberline {a}{\ignorespaces Barbara\relax }}{76}{figure.caption.48}
\contentsline {subfigure}{\numberline {b}{\ignorespaces Butterfly\relax }}{76}{figure.caption.48}
\contentsline {subfigure}{\numberline {c}{\ignorespaces Fish\relax }}{76}{figure.caption.48}
\contentsline {subfigure}{\numberline {d}{\ignorespaces Owl\relax }}{76}{figure.caption.48}
\contentsline {figure}{\numberline {4.18}{\ignorespaces Reconstruction Barbara image}}{77}{figure.caption.49}
\contentsline {subfigure}{\numberline {a}{\ignorespaces Noisy image\relax }}{77}{figure.caption.49}
\contentsline {subfigure}{\numberline {b}{\ignorespaces Reconstruction with $TV$\relax }}{77}{figure.caption.49}
\contentsline {subfigure}{\numberline {c}{\ignorespaces Reconstruction with $TV_{pwL}^{\gamma }$, $\gamma =29.8687$\relax }}{77}{figure.caption.49}
\contentsline {subfigure}{\numberline {d}{\ignorespaces Reconstruction with $TVL^2_{\alpha ,\beta }$, $\beta =179.2785$\relax }}{77}{figure.caption.49}
\contentsline {subfigure}{\numberline {e}{\ignorespaces Reconstruction with $TVL^{\infty }_{\alpha ,\beta }$, $\beta =43005$\relax }}{77}{figure.caption.49}
\contentsline {subfigure}{\numberline {f}{\ignorespaces Reconstruction with $TGV^2_{\alpha ,\beta }$, $\beta =98.9209$\relax }}{77}{figure.caption.49}
\contentsline {figure}{\numberline {4.19}{\ignorespaces Reconstruction butterfly image}}{79}{figure.caption.51}
\contentsline {subfigure}{\numberline {a}{\ignorespaces Noisy image\relax }}{79}{figure.caption.51}
\contentsline {subfigure}{\numberline {b}{\ignorespaces Reconstruction with $TV$\relax }}{79}{figure.caption.51}
\contentsline {subfigure}{\numberline {c}{\ignorespaces Reconstruction with $TV_{pwL}^{\gamma }$, $\gamma =24.6831$\relax }}{79}{figure.caption.51}
\contentsline {subfigure}{\numberline {d}{\ignorespaces Reconstruction with $TVL^2_{\alpha ,\beta }$, $\beta =166.4492$\relax }}{79}{figure.caption.51}
\contentsline {subfigure}{\numberline {e}{\ignorespaces Reconstruction with $TVL^{\infty }_{\alpha ,\beta }$, $\beta =40688$\relax }}{79}{figure.caption.51}
\contentsline {subfigure}{\numberline {f}{\ignorespaces Reconstruction with $TGV^2_{\alpha ,\beta }$, $\beta =379.0810$\relax }}{79}{figure.caption.51}
\contentsline {figure}{\numberline {4.20}{\ignorespaces Reconstruction fish image}}{80}{figure.caption.52}
\contentsline {subfigure}{\numberline {a}{\ignorespaces Noisy image\relax }}{80}{figure.caption.52}
\contentsline {subfigure}{\numberline {b}{\ignorespaces Reconstruction with $TV$\relax }}{80}{figure.caption.52}
\contentsline {subfigure}{\numberline {c}{\ignorespaces Reconstruction with $TV_{pwL}^{\gamma }$, $\gamma =45.2079$\relax }}{80}{figure.caption.52}
\contentsline {subfigure}{\numberline {d}{\ignorespaces Reconstruction with $TVL^2_{\alpha ,\beta }$, $\beta =46.9115$\relax }}{80}{figure.caption.52}
\contentsline {subfigure}{\numberline {e}{\ignorespaces Reconstruction with $TVL^{\infty }_{\alpha ,\beta }$, $\beta =40322$\relax }}{80}{figure.caption.52}
\contentsline {subfigure}{\numberline {f}{\ignorespaces Reconstruction with $TGV^2_{\alpha ,\beta }$, $\beta =13.7487$\relax }}{80}{figure.caption.52}
\contentsline {figure}{\numberline {4.21}{\ignorespaces Reconstruction owl image}}{81}{figure.caption.53}
\contentsline {subfigure}{\numberline {a}{\ignorespaces Noisy image\relax }}{81}{figure.caption.53}
\contentsline {subfigure}{\numberline {b}{\ignorespaces Reconstruction with $TV$\relax }}{81}{figure.caption.53}
\contentsline {subfigure}{\numberline {c}{\ignorespaces Reconstruction with $TV_{pwL}^{\gamma }$, $\gamma =33.9544$\relax }}{81}{figure.caption.53}
\contentsline {subfigure}{\numberline {d}{\ignorespaces Reconstruction with $TVL^2_{\alpha ,\beta }$, $\beta =0.4572$\relax }}{81}{figure.caption.53}
\contentsline {subfigure}{\numberline {e}{\ignorespaces Reconstruction with $TVL^{\infty }_{\alpha ,\beta }$, $\beta =2082.7$\relax }}{81}{figure.caption.53}
\contentsline {subfigure}{\numberline {f}{\ignorespaces Reconstruction with $TGV^2_{\alpha ,\beta }$, $\beta =61.8034$\relax }}{81}{figure.caption.53}
\contentsline {figure}{\numberline {4.22}{\ignorespaces Reconstruction owl image with different values of $\gamma $}}{83}{figure.caption.55}
\contentsline {subfigure}{\numberline {a}{\ignorespaces Noisy image\relax }}{83}{figure.caption.55}
\contentsline {subfigure}{\numberline {b}{\ignorespaces Reconstruction with $TV_{pwL}^{\gamma }$, $\gamma =163.2667$\relax }}{83}{figure.caption.55}
\contentsline {subfigure}{\numberline {c}{\ignorespaces Reconstruction with $TV_{pwL}^{\gamma }$, $\gamma =16.8376$\relax }}{83}{figure.caption.55}
\contentsline {subfigure}{\numberline {d}{\ignorespaces Reconstruction with $TV_{pwL}^{\gamma }$, $\gamma =5$\relax }}{83}{figure.caption.55}
\addvspace {10\p@ }
\addvspace {10\p@ }
