\relax 
\providecommand\hyper@newdestlabel[2]{}
\providecommand\HyperFirstAtBeginDocument{\AtBeginDocument}
\HyperFirstAtBeginDocument{\ifx\hyper@anchor\@undefined
\global\let\oldcontentsline\contentsline
\gdef\contentsline#1#2#3#4{\oldcontentsline{#1}{#2}{#3}}
\global\let\oldnewlabel\newlabel
\gdef\newlabel#1#2{\newlabelxx{#1}#2}
\gdef\newlabelxx#1#2#3#4#5#6{\oldnewlabel{#1}{{#2}{#3}}}
\AtEndDocument{\ifx\hyper@anchor\@undefined
\let\contentsline\oldcontentsline
\let\newlabel\oldnewlabel
\fi}
\fi}
\global\let\hyper@last\relax 
\gdef\HyperFirstAtBeginDocument#1{#1}
\providecommand*\HyPL@Entry[1]{}
\HyPL@Entry{0<</S/D>>}
\pgfsyspdfmark {pgfid1}{4661699}{50930735}
\@writefile{toc}{\contentsline {section}{\color  {slateblue}Persönliche Daten}{2}{Doc-Start}}
\@writefile{toc}{\contentsline {section}{\color  {slateblue}Studium}{2}{Doc-Start}}
\@writefile{toc}{\contentsline {section}{\color  {slateblue}Praktikum}{2}{Doc-Start}}
\@writefile{toc}{\contentsline {section}{\color  {slateblue}Studentische Nebentätigkeit}{2}{Doc-Start}}
\@writefile{toc}{\contentsline {section}{\color  {slateblue}Hilfswissenschaftliche Nebentätigkeit}{3}{Doc-Start}}
\@writefile{toc}{\contentsline {section}{\color  {slateblue}Sonstige Nebentätigkeit}{3}{Doc-Start}}
\@writefile{toc}{\contentsline {section}{\color  {slateblue}Zivildienst}{3}{Doc-Start}}
\@writefile{toc}{\contentsline {section}{\color  {slateblue}Schulische Ausbildung}{3}{Doc-Start}}
\@writefile{toc}{\contentsline {section}{\color  {slateblue}Zusatzqualifikationen}{3}{Doc-Start}}
\newlabel{LastPage}{{}{3}{}{page.3}{}}
\xdef\lastpage@lastpage{3}
\xdef\lastpage@lastpageHy{3}
